<svg width="602" height="430" viewBox="0 0 602 430" fill="none" xmlns="http://www.w3.org/2000/svg">
<path d="M333.75 324.847H347.46V399.484H333.75V324.847Z" fill="#4F4039"/>
<path d="M408.391 405.577V384.252L338.32 324.847V346.172L408.391 405.577Z" fill="#3F332E"/>
<path d="M339.844 397.961V376.636L408.391 329.417V350.742L339.844 397.961Z" fill="#3F332E"/>
<path d="M406.868 341.603H423.624V416.239H406.868V341.603Z" fill="#4F4039"/>
<path d="M0.152277 229.19C96.7282 225.991 271.296 218.071 271.296 218.071L412.961 303.37L0.152277 323.933V229.19Z" fill="#E0DCD7"/>
<path d="M0.152348 358.358L472.369 341.603V303.522L0.152348 315.708V358.358Z" fill="#7D6559"/>
<path d="M405.345 128.354H412.961V135.97H405.345V128.354Z" fill="#A38B24"/>
<path d="M388.589 145.109H429.717V148.156H388.589V145.109Z" fill="#A38B24"/>
<path d="M429.717 145.109L412.961 135.97H405.345L388.589 145.109H429.717Z" fill="#B59A2A"/>
<path d="M403.822 102.46C403.822 102.46 406.868 107.029 406.868 110.076C406.868 114.645 405.345 116.169 406.868 119.215C408.391 122.261 412.961 126.831 409.915 128.354C406.868 129.877 402.298 123.785 402.298 119.215C402.298 116.169 405.345 113.122 405.345 110.076C405.345 105.506 403.822 102.46 403.822 102.46Z" fill="#FFBA49"/>
<path d="M484.555 53.7172L472.369 33.9155L458.659 55.2404L467.799 70.4724L484.555 53.7172Z" fill="#E79F98"/>
<path d="M459.726 6.95491C459.726 6.95491 446.473 0.405141 437.334 15.6372C437.334 15.6372 432.764 32.3924 439.466 41.6839C445.255 49.6046 448.301 58.8961 455.613 56.7636C455.613 56.7636 475.873 48.386 473.892 34.2202C472.064 21.4253 465.667 8.17347 459.726 6.95491Z" fill="#F9BAAD"/>
<path d="M455.613 24.7765C452.719 22.9487 441.903 14.1141 437.334 15.6373C432.764 17.1605 443.427 6.49807 446.473 4.97487C449.52 3.45167 453.937 1.92847 460.183 1.92847C464.753 1.92847 469.475 3.14703 473.892 6.49807C479.985 11.0677 478.462 18.6837 484.555 20.2069C486.536 20.6639 486.079 25.9951 486.079 27.8229C485.926 31.4786 483.337 38.4853 478.462 38.4853C472.369 38.4853 464.753 30.8693 455.613 24.7765Z" fill="#735531"/>
<path d="M443.427 4.97476C443.427 1.92835 463.229 -1.11805 467.799 0.405151C472.369 1.92835 490.648 17.1604 489.125 23.2532C487.602 29.346 484.555 24.7764 479.985 29.346C475.416 33.9156 469.322 55.2404 458.66 55.2404C461.706 43.0548 461.706 32.3924 460.183 23.2532C458.66 14.114 443.427 6.49796 443.427 4.97476Z" fill="#DAE3F7"/>
<path d="M524.16 169.481C543.963 190.805 559.196 239.548 566.812 277.628C571.839 302.608 574.429 353.788 586.615 376.636C598.801 399.484 603.371 420.809 601.848 423.855C600.324 426.902 565.289 425.379 556.149 423.855C547.01 422.332 531.777 420.809 527.207 422.332C522.637 423.855 505.881 429.948 495.218 429.948C484.555 429.948 478.462 419.286 463.229 417.763C447.996 416.239 428.194 414.716 426.671 416.239C425.147 417.763 417.531 420.809 412.961 417.763C404.888 412.279 434.287 294.383 435.81 259.349C437.334 224.316 443.427 193.852 460.183 174.05C476.939 154.249 504.358 148.156 524.16 169.481Z" fill="#2C4777"/>
<path d="M452.566 152.725C452.566 152.725 437.334 167.957 435.81 171.004C434.287 174.05 435.81 184.713 438.857 187.759C441.903 190.805 449.52 190.805 451.043 189.282C452.566 187.759 463.229 167.957 463.229 167.957L452.566 152.725Z" fill="#253F5E"/>
<path d="M447.996 172.527C446.473 171.004 440.38 169.481 438.857 171.004C437.334 172.527 434.287 178.62 437.334 180.143C440.38 181.666 446.473 183.189 447.996 180.143C449.52 177.097 449.52 174.05 447.996 172.527Z" fill="#DAE3F7"/>
<path d="M444.95 177.097C442.817 181.362 441.903 190.805 440.38 192.329C438.857 193.852 435.81 193.852 435.81 201.468C435.81 209.236 435.81 210.607 434.287 210.607C432.764 210.607 426.671 206.037 428.194 196.898C429.717 187.759 437.333 175.573 440.38 172.527C441.903 171.004 446.473 174.05 444.95 177.097Z" fill="#E79F98"/>
<path d="M484.555 49.1477L461.706 64.3797C460.183 67.4261 451.043 88.751 451.043 97.8902C451.043 110.228 454.09 119.215 455.613 126.831C457.136 134.447 458.659 166.13 458.659 171.004C458.659 177.097 460.487 192.481 463.229 193.852C466.276 195.375 489.125 180.143 493.695 178.62C498.265 177.097 527.207 180.143 530.254 172.527C531.472 169.328 510.451 149.679 508.928 134.447L484.555 49.1477Z" fill="#314C89"/>
<path d="M449.52 145.109C446.473 143.586 437.333 140.54 434.287 140.54C431.24 140.54 420.577 145.109 420.577 146.633C420.577 148.156 428.194 157.295 432.764 157.295C437.333 157.295 440.38 152.725 443.427 152.725C446.473 152.725 454.09 155.772 454.09 155.772L457.136 146.633L449.52 145.109Z" fill="#F9BAAD"/>
<path d="M484.555 50.6709C490.648 53.7173 508.928 70.4725 510.451 79.6117C511.974 88.751 511.974 146.633 508.928 149.679C505.881 152.725 469.322 167.957 461.706 171.004C454.09 174.05 446.473 143.586 446.473 142.063C446.473 140.54 483.032 129.877 484.555 126.831C486.078 123.785 484.555 113.122 483.032 108.553L484.555 50.6709Z" fill="#314C89"/>
<path d="M460.792 58.7439L463.229 62.8565L481.509 47.6245C484.555 47.6245 492.172 53.7173 492.172 55.2405C492.172 56.7637 473.892 71.9957 470.846 75.0422C469.322 76.5654 464.753 67.4261 461.706 67.4261C461.249 67.4261 460.792 67.8831 460.335 68.6447L457.136 75.0422C457.136 75.0422 458.812 63.6181 460.792 58.7439Z" fill="#DAE3F7"/>
<path d="M68.7 174.964C59.865 183.646 58.1893 224.468 62.6069 230.256C70.2233 234.826 74.7931 237.872 76.621 229.647C95.205 180.295 82.8665 171.156 84.8467 164.149C81.0385 162.931 76.9257 165.977 68.7 174.964Z" fill="#BCB9B5"/>
<path d="M106.782 233.151C99.4702 263.615 111.199 274.429 122.015 280.522C139.532 290.271 204.424 280.827 204.424 280.827C207.928 247.469 224.074 243.965 224.074 243.965C167.104 232.084 160.706 230.866 160.706 230.866L106.782 233.151Z" fill="#BCBEC0"/>
<path d="M62.6066 230.409C62.6066 230.409 71.7463 207.561 90.0256 213.653C108 218.375 127.498 231.932 141.665 235.892C146.539 237.263 135.267 249.144 135.267 249.144C99.1653 255.389 62.6066 230.409 62.6066 230.409Z" fill="#BCB9B5"/>
<path d="M108.305 268.489C147.453 261.33 162.229 231.627 158.726 228.733C149.586 221.422 142.884 207.865 140.294 201.468C140.294 201.468 120.491 158.818 109.828 155.772C99.1655 152.726 86.6746 157.6 86.6746 157.6C73.1174 166.13 65.501 176.64 68.6999 184.865C76.3163 204.514 89.8735 230.561 89.8735 230.561C97.4899 259.197 108.305 268.489 108.305 268.489Z" fill="#DDD9D3"/>
<path d="M69.157 138.712C69.157 138.712 79.9723 149.984 81.1909 161.408C81.8002 167.653 95.205 163.692 99.6226 155.619C99.6226 155.619 90.1782 135.665 94.2911 130.182C98.0993 124.851 69.157 138.712 69.157 138.712Z" fill="#F7A493"/>
<path d="M61.6928 103.374C61.6928 103.374 77.2302 87.9894 91.8537 95.3007C91.8537 95.3007 100.079 112.361 102.212 123.175C104.345 133.99 105.868 142.063 98.2515 145.109C98.2515 145.109 76.1639 151.507 68.2429 137.341C61.2358 124.699 57.5799 108.553 61.6928 103.374Z" fill="#F9BAAD"/>
<path d="M181.27 312.662L146.083 313.88C138.162 311.138 129.174 304.589 117.445 291.337C106.63 278.999 135.724 262.396 144.864 250.21C154.004 238.025 141.817 198.421 155.527 198.421C169.236 198.421 190.562 206.037 210.365 207.561C230.168 209.084 234.737 190.805 269.773 207.561C296.887 220.508 313.948 247.164 330.704 253.257C347.46 259.349 352.03 249.906 374.879 248.687C405.345 247.164 419.054 260.873 428.194 266.965C437.334 273.058 500.397 291.032 490.648 303.522C479.985 317.231 437.334 315.708 424.081 325.304C410.829 334.9 388.589 373.59 370.309 388.822C352.03 404.054 318.518 390.345 297.192 384.252C275.866 378.159 281.959 376.636 265.203 369.02C248.447 361.404 234.737 359.881 217.981 355.311C201.225 350.742 204.577 312.662 184.469 312.662C183.403 312.662 182.337 312.662 181.27 312.662Z" fill="#F2EDE4"/>
<path d="M178.833 264.681C197.722 269.098 206.861 272.297 199.702 266.661C192.542 261.025 185.078 261.634 185.078 261.634L178.833 264.681Z" fill="#F9BAAD"/>
<path d="M186.906 261.635C178.071 261.178 178.224 272.754 178.224 272.754C189.953 282.655 196.808 282.198 200.616 282.045C201.377 281.893 203.205 281.893 203.662 281.893C204.424 281.893 205.795 281.284 206.252 280.827C206.861 280.065 206.252 279.913 206.404 279.913C206.557 279.913 209.908 280.522 207.471 277.933C203.815 274.277 203.51 273.82 197.417 268.794C191.019 263.919 186.906 261.635 186.906 261.635Z" fill="#F9BAAD"/>
<path d="M87.741 171.308C90.9399 218.375 150.805 265.747 179.595 273.515C179.595 273.515 182.489 273.82 185.079 269.707C187.668 265.595 182.946 260.111 182.946 260.111C167.865 249.296 148.977 234.978 141.208 228.885C126.432 205.276 114.398 173.289 99.0133 158.818C99.1657 158.97 87.1317 161.408 87.741 171.308Z" fill="#DDD9D3"/>
<path d="M70.5278 140.997C67.7859 138.864 49.3542 124.546 51.3345 109.01C53.7717 89.0556 79.5151 85.2476 82.5617 85.2476C92.3107 85.2476 95.6619 90.4264 95.6619 90.4264C95.6619 90.4264 98.8608 94.8437 95.8143 98.1948C94.5956 99.5657 90.4827 96.2146 79.3628 102.307C68.2429 108.4 69.7662 126.222 69.7662 126.222C69.7662 126.222 73.2697 143.129 70.5278 140.997Z" fill="#664429"/>
<path d="M71.1373 119.824C69.614 117.844 67.7861 116.778 66.2628 117.387C64.1302 118.301 63.6732 121.957 65.0442 125.612C66.5674 129.42 69.4617 131.705 71.5943 130.944C73.7269 130.03 74.1838 126.374 72.8129 122.718C72.3559 121.5 71.7466 120.586 71.1373 119.824Z" fill="#F9BAAD"/>
<path d="M68.7001 114.645C73.2699 113.122 80.8863 125.308 88.5027 128.354C96.1191 131.401 102.212 125.308 103.735 126.831C105.259 128.354 114.398 143.586 106.782 146.633C99.1657 149.679 88.5027 149.679 82.4096 148.156C76.3165 146.633 70.2234 146.023 70.2234 140.54C70.2234 131.401 71.7466 119.215 68.7001 114.645Z" fill="#664429"/>
<path d="M0.152353 202.839C15.9945 206.494 32.4459 216.243 36.5588 221.574C42.0426 228.276 42.4995 258.131 42.1949 262.396C42.0425 266.661 11.2723 261.177 0.609365 258.892C0.457037 258.892 0.15239 258.74 6.24835e-05 258.74V202.839H0.152353Z" fill="#F2EDE4"/>
</svg>
