<?xml version="1.0" encoding="UTF-8" standalone="no"?>
<svg
   xmlns:dc="http://purl.org/dc/elements/1.1/"
   xmlns:cc="http://creativecommons.org/ns#"
   xmlns:rdf="http://www.w3.org/1999/02/22-rdf-syntax-ns#"
   xmlns:svg="http://www.w3.org/2000/svg"
   xmlns="http://www.w3.org/2000/svg"
   xmlns:sodipodi="http://sodipodi.sourceforge.net/DTD/sodipodi-0.dtd"
   xmlns:inkscape="http://www.inkscape.org/namespaces/inkscape"
   inkscape:version="1.0 (4035a4fb49, 2020-05-01)"
   sodipodi:docname="noun_network_2073664.svg"
   id="svg56"
   xml:space="preserve"
   enable-background="new 0 0 100 100"
   viewBox="0 0 100 100"
   y="0px"
   x="0px"
   version="1.1"
   fill="#009688"
   width="100px"
   height="100px"><metadata
     id="metadata62"><rdf:RDF><cc:Work
         rdf:about=""><dc:format>image/svg+xml</dc:format><dc:type
           rdf:resource="http://purl.org/dc/dcmitype/StillImage" /></cc:Work></rdf:RDF></metadata><defs
     id="defs60" /><sodipodi:namedview
     inkscape:current-layer="svg56"
     inkscape:window-maximized="1"
     inkscape:window-y="32"
     inkscape:window-x="-8"
     inkscape:cy="35.359998"
     inkscape:cx="49.371929"
     inkscape:zoom="7.2549156"
     showgrid="false"
     id="namedview58"
     inkscape:window-height="1377"
     inkscape:window-width="2560"
     inkscape:pageshadow="2"
     inkscape:pageopacity="0"
     guidetolerance="10"
     gridtolerance="10"
     objecttolerance="10"
     borderopacity="1"
     bordercolor="#666666"
     pagecolor="#ffffff" /><path
     fill="none"
     d="m 38.438,78.461 c -0.715,-2.804 -1.313,-5.847 -1.789,-9.041 -3.435,-0.049 -6.205,-2.734 -6.432,-6.123 -3.062,-0.467 -5.98,-1.047 -8.678,-1.736 0.924,4.576 2.38,8.833 4.27,12.63 3.797,1.89 8.054,3.346 12.629,4.27 z"
     id="path2" /><path
     fill="none"
     d="M 71.727,21.484 C 67.684,15.281 62.345,10.81 56.326,8.943 c 1.697,2.323 3.144,5.566 4.338,9.413 3.912,0.691 7.625,1.75 11.063,3.128 z"
     id="path4" /><path
     fill="none"
     d="m 56.429,35.41 c 0.604,-1.979 2.097,-3.55 4.032,-4.25 C 59.898,27.367 59.176,23.952 58.346,20.979 55.648,20.594 52.857,20.391 50,20.391 c -2.857,0 -5.648,0.204 -8.347,0.588 -1.149,4.115 -2.086,9.085 -2.689,14.721 3.64,-0.29 7.356,-0.44 11.036,-0.44 2.138,0 4.288,0.051 6.429,0.15 z"
     id="path6" /><path
     fill="none"
     d="m 69.182,36.615 c 3.28,0.482 6.405,1.091 9.279,1.824 -0.924,-4.576 -2.38,-8.833 -4.27,-12.63 -3.797,-1.89 -8.054,-3.346 -12.63,-4.27 0.733,2.874 1.342,5.999 1.824,9.279 3.06,0.329 5.467,2.737 5.797,5.797 z"
     id="path8" /><path
     fill="none"
     d="m 76.372,23.628 c 4.859,2.553 8.994,5.786 12.12,9.513 C 84.253,23.5 76.5,15.747 66.859,11.508 c 3.727,3.126 6.96,7.261 9.513,12.12 z"
     id="path10" /><path
     fill="none"
     d="m 24.176,30.779 c -0.163,0 -0.317,-0.034 -0.477,-0.048 -0.891,2.44 -1.617,5.019 -2.16,7.708 4.348,-1.109 9.272,-1.936 14.432,-2.467 0.531,-5.16 1.358,-10.084 2.467,-14.432 -3.229,0.652 -6.298,1.568 -9.161,2.716 0.099,0.404 0.167,0.82 0.167,1.255 0.001,2.909 -2.358,5.268 -5.268,5.268 z"
     id="path12" /><path
     fill="none"
     d="m 79.609,50 c 0,-2.857 -0.204,-5.648 -0.588,-8.347 -2.972,-0.83 -6.387,-1.551 -10.18,-2.115 -0.699,1.935 -2.272,3.429 -4.251,4.032 0.099,2.141 0.15,4.292 0.15,6.43 0,3.679 -0.151,7.396 -0.441,11.035 5.637,-0.603 10.607,-1.54 14.722,-2.689 0.384,-2.698 0.588,-5.488 0.588,-8.346 z"
     id="path14" /><path
     fill="none"
     d="m 20.391,50 c 0,2.857 0.204,5.648 0.588,8.347 2.841,0.793 6.091,1.485 9.686,2.037 0.816,-2 2.583,-3.51 4.744,-3.956 -0.099,-2.141 -0.15,-4.291 -0.15,-6.428 0,-3.68 0.15,-7.396 0.441,-11.036 -5.636,0.603 -10.606,1.54 -14.721,2.689 -0.384,2.699 -0.588,5.49 -0.588,8.347 z"
     id="path16" /><path
     fill="none"
     d="m 92.033,50 c 0,-2.546 -3.617,-5.224 -9.903,-7.382 0.288,2.403 0.446,4.867 0.446,7.382 0,2.514 -0.157,4.978 -0.446,7.381 6.285,-2.157 9.903,-4.835 9.903,-7.381 z"
     id="path18" /><path
     fill="none"
     d="m 78.515,28.272 c 1.379,3.438 2.437,7.151 3.129,11.063 3.847,1.194 7.09,2.642 9.413,4.338 C 89.189,37.654 84.719,32.315 78.515,28.272 Z"
     id="path20" /><path
     fill="none"
     d="m 43.06,64.564 c -0.505,1.874 -1.804,3.41 -3.529,4.224 0.564,3.814 1.288,7.247 2.122,10.233 2.699,0.385 5.489,0.588 8.347,0.588 2.857,0 5.648,-0.204 8.346,-0.588 1.149,-4.115 2.086,-9.085 2.688,-14.721 -3.639,0.29 -7.355,0.44 -11.034,0.44 -2.308,0 -4.63,-0.061 -6.94,-0.176 z"
     id="path22" /><path
     fill="none"
     d="m 75.201,70.301 c 0.235,0 0.46,0.039 0.687,0.069 1.082,-2.761 1.948,-5.712 2.573,-8.808 -4.349,1.109 -9.273,1.936 -14.433,2.467 -0.531,5.16 -1.358,10.084 -2.467,14.433 2.95,-0.596 5.772,-1.405 8.419,-2.417 -0.014,-0.159 -0.048,-0.312 -0.048,-0.475 0,-2.91 2.359,-5.269 5.269,-5.269 z"
     id="path24" /><path
     fill="none"
     d="m 61.772,50 c 0,-2.133 -0.049,-4.206 -0.136,-6.221 -2.783,-0.449 -4.966,-2.632 -5.415,-5.416 -2.015,-0.088 -4.087,-0.136 -6.22,-0.136 -3.982,0 -7.766,0.162 -11.319,0.454 -0.292,3.553 -0.455,7.337 -0.455,11.319 0,2.238 0.052,4.412 0.149,6.521 2.437,0.627 4.33,2.598 4.811,5.091 2.199,0.105 4.473,0.161 6.814,0.161 3.981,0 7.765,-0.162 11.318,-0.454 C 61.61,57.766 61.772,53.982 61.772,50 Z"
     id="path26" /><path
     fill="none"
     d="m 71.05,78.781 c -3.248,1.25 -6.73,2.218 -10.386,2.864 -1.194,3.847 -2.641,7.09 -4.338,9.413 5.823,-1.807 11.007,-6.052 14.999,-11.943 -0.097,-0.107 -0.187,-0.22 -0.275,-0.334 z"
     id="path28" /><path
     fill="none"
     d="m 80.238,74.106 c 0.136,0.468 0.232,0.952 0.232,1.464 0,2.91 -2.359,5.269 -5.269,5.269 -0.477,0 -0.93,-0.084 -1.37,-0.203 -2.048,3.037 -4.39,5.69 -6.971,7.856 C 76.5,84.253 84.253,76.5 88.492,66.86 c -2.261,2.695 -5.047,5.135 -8.254,7.246 z"
     id="path30" /><path
     fill="none"
     d="m 50,82.576 c -2.515,0 -4.978,-0.157 -7.382,-0.446 2.158,6.285 4.836,9.902 7.382,9.902 2.546,0 5.223,-3.617 7.381,-9.902 -2.403,0.289 -4.867,0.446 -7.381,0.446 z"
     id="path32" /><path
     fill="none"
     d="m 28.273,78.516 c 4.043,6.203 9.382,10.673 15.401,12.541 -1.696,-2.323 -3.144,-5.566 -4.339,-9.413 -3.911,-0.691 -7.624,-1.75 -11.062,-3.128 z"
     id="path34" /><path
     fill="none"
     d="m 78.585,71.562 c 0.026,0.023 0.054,0.043 0.08,0.066 6.125,-4.031 10.54,-9.331 12.392,-15.302 -2.323,1.697 -5.566,3.144 -9.413,4.338 -0.68,3.849 -1.713,7.507 -3.059,10.898 z"
     id="path36" /><path
     fill="none"
     d="M 23.628,76.372 C 18.769,73.818 14.634,70.586 11.508,66.859 15.747,76.5 23.5,84.253 33.14,88.492 29.414,85.366 26.181,81.231 23.628,76.372 Z"
     id="path38" /><path
     fill="none"
     d="m 17.87,57.382 c -0.289,-2.403 -0.446,-4.867 -0.446,-7.381 0,-2.515 0.157,-4.979 0.446,-7.382 -6.285,2.158 -9.903,4.835 -9.903,7.381 0,2.546 3.618,5.224 9.903,7.382 z"
     id="path40" /><path
     fill="none"
     d="m 21.485,71.728 c -1.379,-3.439 -2.438,-7.152 -3.129,-11.063 -3.847,-1.194 -7.09,-2.642 -9.413,-4.338 1.868,6.019 6.338,11.359 12.542,15.401 z"
     id="path42" /><path
     fill="none"
     d="m 39.335,18.356 c 1.195,-3.847 2.642,-7.09 4.339,-9.413 -6.019,1.868 -11.358,6.338 -15.401,12.541 3.438,-1.378 7.151,-2.437 11.062,-3.128 z"
     id="path44" /><path
     fill="none"
     d="m 18.999,26.421 c -0.052,-0.297 -0.092,-0.599 -0.092,-0.911 0,-2.91 2.359,-5.269 5.269,-5.269 0.453,0 0.885,0.075 1.304,0.182 2.205,-3.483 4.784,-6.502 7.661,-8.915 C 23.5,15.747 15.747,23.5 11.508,33.141 c 2.078,-2.477 4.607,-4.732 7.491,-6.72 z"
     id="path46" /><path
     fill="none"
     d="M 20.958,29.655 C 20.726,29.474 20.507,29.28 20.308,29.063 14.713,33 10.691,38.041 8.943,43.674 c 2.322,-1.696 5.566,-3.144 9.413,-4.338 0.6,-3.395 1.479,-6.636 2.602,-9.681 z"
     id="path48" /><path
     fill="none"
     d="m 50,17.424 c 2.514,0 4.977,0.157 7.38,0.446 C 55.222,11.585 52.545,7.968 50,7.968 c -2.546,0 -5.223,3.617 -7.381,9.902 2.403,-0.289 4.867,-0.446 7.381,-0.446 z"
     id="path50" /><path
     inkscape:label="#image"
     d="M 50,5 C 25.187,5 5,25.187 5,50 5,74.813 25.187,95 50,95 74.813,95 95,74.813 95,50 95,25.187 74.813,5 50,5 Z m 32.13,37.619 c 6.285,2.158 9.903,4.836 9.903,7.382 0,2.546 -3.617,5.223 -9.903,7.381 0.288,-2.403 0.446,-4.867 0.446,-7.381 0,-2.515 -0.157,-4.979 -0.446,-7.382 z m -0.486,-3.284 c -0.691,-3.912 -1.75,-7.624 -3.129,-11.063 6.203,4.043 10.673,9.382 12.541,15.401 -2.322,-1.696 -5.565,-3.143 -9.412,-4.338 z m -11.665,36.71 c -2.647,1.012 -5.469,1.821 -8.419,2.417 1.109,-4.348 1.936,-9.272 2.467,-14.433 5.16,-0.531 10.084,-1.358 14.433,-2.467 -0.625,3.096 -1.491,6.048 -2.573,8.808 -0.227,-0.03 -0.452,-0.069 -0.687,-0.069 -2.91,0 -5.269,2.359 -5.269,5.269 0.001,0.162 0.034,0.316 0.048,0.475 z M 50,61.773 c -2.341,0 -4.615,-0.056 -6.814,-0.161 -0.481,-2.493 -2.373,-4.464 -4.811,-5.091 -0.096,-2.108 -0.149,-4.283 -0.149,-6.521 0,-3.982 0.162,-7.766 0.455,-11.319 3.553,-0.292 7.337,-0.454 11.319,-0.454 2.133,0 4.205,0.049 6.22,0.136 0.449,2.784 2.632,4.967 5.415,5.416 0.088,2.015 0.136,4.088 0.136,6.221 0,3.981 -0.162,7.766 -0.454,11.318 C 57.765,61.611 53.981,61.773 50,61.773 Z M 61.035,64.3 c -0.602,5.637 -1.54,10.606 -2.688,14.721 -2.699,0.385 -5.489,0.588 -8.346,0.588 -2.857,0 -5.648,-0.204 -8.347,-0.588 -0.834,-2.986 -1.558,-6.419 -2.122,-10.233 1.725,-0.814 3.024,-2.349 3.529,-4.224 2.31,0.115 4.632,0.176 6.94,0.176 3.678,0 7.394,-0.15 11.034,-0.44 z M 29.278,24.255 c 2.862,-1.148 5.932,-2.064 9.161,-2.716 -1.109,4.348 -1.936,9.272 -2.467,14.432 -5.16,0.531 -10.084,1.358 -14.432,2.467 0.543,-2.689 1.269,-5.267 2.16,-7.708 0.16,0.014 0.313,0.048 0.477,0.048 2.91,0 5.269,-2.359 5.269,-5.269 -0.001,-0.434 -0.069,-0.85 -0.168,-1.254 z m 6.422,14.71 c -0.29,3.64 -0.441,7.356 -0.441,11.036 0,2.137 0.051,4.287 0.15,6.428 -2.161,0.446 -3.928,1.956 -4.744,3.956 -3.594,-0.552 -6.845,-1.244 -9.686,-2.037 -0.385,-2.699 -0.588,-5.489 -0.588,-8.347 0,-2.857 0.204,-5.648 0.588,-8.347 4.115,-1.15 9.085,-2.087 14.721,-2.689 z m -5.482,24.332 c 0.227,3.389 2.997,6.074 6.432,6.123 0.476,3.193 1.074,6.237 1.789,9.041 -4.576,-0.924 -8.833,-2.38 -12.629,-4.269 -1.89,-3.797 -3.346,-8.054 -4.27,-12.63 2.697,0.688 5.616,1.268 8.678,1.735 z M 38.964,35.7 c 0.602,-5.637 1.54,-10.607 2.689,-14.721 2.699,-0.385 5.489,-0.588 8.347,-0.588 2.857,0 5.648,0.204 8.346,0.588 0.83,2.973 1.551,6.388 2.115,10.181 -1.935,0.699 -3.428,2.271 -4.032,4.25 -2.141,-0.099 -4.291,-0.15 -6.429,-0.15 -3.68,0 -7.396,0.15 -11.036,0.44 z M 61.561,21.539 c 4.576,0.924 8.833,2.38 12.63,4.27 1.89,3.797 3.346,8.054 4.27,12.63 -2.874,-0.733 -5.999,-1.342 -9.279,-1.824 -0.329,-3.06 -2.737,-5.468 -5.797,-5.797 -0.483,-3.28 -1.092,-6.405 -1.824,-9.279 z m 2.737,39.497 c 0.29,-3.64 0.441,-7.356 0.441,-11.035 0,-2.138 -0.051,-4.289 -0.15,-6.43 1.979,-0.603 3.552,-2.097 4.251,-4.032 3.793,0.563 7.208,1.285 10.18,2.115 0.385,2.699 0.588,5.49 0.588,8.347 0,2.857 -0.204,5.648 -0.588,8.347 -4.114,1.148 -9.085,2.085 -14.722,2.688 z M 88.492,33.141 C 85.366,29.415 81.231,26.182 76.372,23.628 73.819,18.769 70.586,14.634 66.86,11.508 76.5,15.747 84.253,23.5 88.492,33.141 Z M 71.727,21.484 C 68.288,20.105 64.575,19.047 60.664,18.355 59.47,14.508 58.023,11.265 56.326,8.942 62.345,10.81 67.685,15.281 71.727,21.484 Z M 50,7.967 c 2.546,0 5.223,3.617 7.38,9.902 -2.403,-0.288 -4.866,-0.446 -7.38,-0.446 -2.515,0 -4.978,0.157 -7.381,0.446 C 44.777,11.584 47.454,7.967 50,7.967 Z m -6.326,0.976 c -1.696,2.323 -3.144,5.566 -4.339,9.413 -3.911,0.691 -7.624,1.75 -11.062,3.128 4.042,-6.203 9.382,-10.673 15.401,-12.541 z M 33.14,11.508 c -2.877,2.413 -5.456,5.432 -7.661,8.915 -0.419,-0.107 -0.851,-0.182 -1.304,-0.182 -2.91,0 -5.269,2.359 -5.269,5.269 0,0.312 0.04,0.614 0.092,0.911 -2.884,1.988 -5.413,4.243 -7.49,6.72 C 15.747,23.5 23.5,15.747 33.14,11.508 Z M 20.308,29.063 c 0.199,0.217 0.418,0.411 0.65,0.592 -1.123,3.045 -2.002,6.287 -2.602,9.681 -3.847,1.194 -7.09,2.642 -9.413,4.338 C 10.691,38.041 14.713,33 20.308,29.063 Z M 17.87,42.619 c -0.288,2.403 -0.446,4.867 -0.446,7.382 0,2.514 0.157,4.978 0.446,7.381 C 11.585,55.224 7.967,52.546 7.967,50 c 0,-2.546 3.618,-5.223 9.903,-7.381 z m 0.486,18.046 c 0.691,3.912 1.75,7.625 3.129,11.063 -6.203,-4.043 -10.674,-9.382 -12.542,-15.402 2.323,1.697 5.566,3.145 9.413,4.339 z m -6.848,6.195 c 3.126,3.726 7.261,6.959 12.12,9.513 2.554,4.859 5.786,8.994 9.512,12.12 C 23.5,84.253 15.747,76.5 11.508,66.86 Z m 16.765,11.656 c 3.438,1.379 7.151,2.437 11.062,3.128 1.195,3.847 2.642,7.09 4.339,9.413 C 37.655,89.189 32.315,84.719 28.273,78.516 Z M 50,92.033 c -2.546,0 -5.223,-3.617 -7.382,-9.902 2.404,0.288 4.867,0.446 7.382,0.446 2.514,0 4.977,-0.157 7.381,-0.446 -2.158,6.285 -4.835,9.902 -7.381,9.902 z m 6.326,-0.976 c 1.697,-2.323 3.144,-5.566 4.338,-9.413 3.656,-0.646 7.139,-1.614 10.386,-2.864 0.088,0.114 0.178,0.227 0.275,0.334 -3.992,5.891 -9.176,10.137 -14.999,11.943 z M 66.86,88.492 c 2.581,-2.165 4.924,-4.818 6.971,-7.856 0.439,0.119 0.893,0.203 1.37,0.203 2.91,0 5.269,-2.359 5.269,-5.269 0,-0.512 -0.096,-0.996 -0.232,-1.464 3.207,-2.11 5.993,-4.551 8.254,-7.246 C 84.253,76.5 76.5,84.253 66.86,88.492 Z M 78.664,71.628 c -0.026,-0.023 -0.054,-0.044 -0.08,-0.066 1.346,-3.391 2.379,-7.049 3.059,-10.897 3.847,-1.194 7.09,-2.642 9.413,-4.338 -1.852,5.97 -6.267,11.27 -12.392,15.301 z"
     id="image" /></svg>
